N1,N2,N3,N4,N5,N6
01-01.mp4,01-02.mp4,01-06.mp4,01-03.mp4,01-05.mp4,01-04.mp4
01-02.mp4,01-03.mp4,01-01.mp4,01-04.mp4,01-06.mp4,01-05.mp4
01-03.mp4,01-04.mp4,01-02.mp4,01-05.mp4,01-01.mp4,01-06.mp4
01-04.mp4,01-05.mp4,01-03.mp4,01-06.mp4,01-02.mp4,01-01.mp4
01-05.mp4,01-06.mp4,01-04.mp4,01-01.mp4,01-03.mp4,01-02.mp4
01-06.mp4,01-01.mp4,01-05.mp4,01-02.mp4,01-04.mp4,01-03.mp4
01-01.mp4,01-02.mp4,01-06.mp4,01-03.mp4,01-05.mp4,01-04.mp4
01-02.mp4,01-03.mp4,01-01.mp4,01-04.mp4,01-06.mp4,01-05.mp4
01-03.mp4,01-04.mp4,01-02.mp4,01-05.mp4,01-01.mp4,01-06.mp4
01-04.mp4,01-05.mp4,01-03.mp4,01-06.mp4,01-02.mp4,01-01.mp4
01-05.mp4,01-06.mp4,01-04.mp4,01-01.mp4,01-03.mp4,01-02.mp4
01-06.mp4,01-01.mp4,01-05.mp4,01-02.mp4,01-04.mp4,01-03.mp4
01-01.mp4,01-02.mp4,01-06.mp4,01-03.mp4,01-05.mp4,01-04.mp4
01-02.mp4,01-03.mp4,01-01.mp4,01-04.mp4,01-06.mp4,01-05.mp4
01-03.mp4,01-04.mp4,01-02.mp4,01-05.mp4,01-01.mp4,01-06.mp4
01-04.mp4,01-05.mp4,01-03.mp4,01-06.mp4,01-02.mp4,01-01.mp4
01-05.mp4,01-06.mp4,01-04.mp4,01-01.mp4,01-03.mp4,01-02.mp4
01-06.mp4,01-01.mp4,01-05.mp4,01-02.mp4,01-04.mp4,01-03.mp4
01-01.mp4,01-02.mp4,01-06.mp4,01-03.mp4,01-05.mp4,01-04.mp4
01-02.mp4,01-03.mp4,01-01.mp4,01-04.mp4,01-06.mp4,01-05.mp4
01-03.mp4,01-04.mp4,01-02.mp4,01-05.mp4,01-01.mp4,01-06.mp4
01-04.mp4,01-05.mp4,01-03.mp4,01-06.mp4,01-02.mp4,01-01.mp4
01-05.mp4,01-06.mp4,01-04.mp4,01-01.mp4,01-03.mp4,01-02.mp4
01-06.mp4,01-01.mp4,01-05.mp4,01-02.mp4,01-04.mp4,01-03.mp4
01-01.mp4,01-02.mp4,01-06.mp4,01-03.mp4,01-05.mp4,01-04.mp4
01-02.mp4,01-03.mp4,01-01.mp4,01-04.mp4,01-06.mp4,01-05.mp4
01-03.mp4,01-04.mp4,01-02.mp4,01-05.mp4,01-01.mp4,01-06.mp4
01-04.mp4,01-05.mp4,01-03.mp4,01-06.mp4,01-02.mp4,01-01.mp4
01-05.mp4,01-06.mp4,01-04.mp4,01-01.mp4,01-03.mp4,01-02.mp4
01-06.mp4,01-01.mp4,01-05.mp4,01-02.mp4,01-04.mp4,01-03.mp4
01-01.mp4,01-02.mp4,01-06.mp4,01-03.mp4,01-05.mp4,01-04.mp4
01-02.mp4,01-03.mp4,01-01.mp4,01-04.mp4,01-06.mp4,01-05.mp4
01-03.mp4,01-04.mp4,01-02.mp4,01-05.mp4,01-01.mp4,01-06.mp4
01-04.mp4,01-05.mp4,01-03.mp4,01-06.mp4,01-02.mp4,01-01.mp4
01-05.mp4,01-06.mp4,01-04.mp4,01-01.mp4,01-03.mp4,01-02.mp4
01-06.mp4,01-01.mp4,01-05.mp4,01-02.mp4,01-04.mp4,01-03.mp4
01-01.mp4,01-02.mp4,01-06.mp4,01-03.mp4,01-05.mp4,01-04.mp4
01-02.mp4,01-03.mp4,01-01.mp4,01-04.mp4,01-06.mp4,01-05.mp4
01-03.mp4,01-04.mp4,01-02.mp4,01-05.mp4,01-01.mp4,01-06.mp4
01-04.mp4,01-05.mp4,01-03.mp4,01-06.mp4,01-02.mp4,01-01.mp4
01-05.mp4,01-06.mp4,01-04.mp4,01-01.mp4,01-03.mp4,01-02.mp4
01-06.mp4,01-01.mp4,01-05.mp4,01-02.mp4,01-04.mp4,01-03.mp4
01-01.mp4,01-02.mp4,01-06.mp4,01-03.mp4,01-05.mp4,01-04.mp4
01-02.mp4,01-03.mp4,01-01.mp4,01-04.mp4,01-06.mp4,01-05.mp4
01-03.mp4,01-04.mp4,01-02.mp4,01-05.mp4,01-01.mp4,01-06.mp4
01-04.mp4,01-05.mp4,01-03.mp4,01-06.mp4,01-02.mp4,01-01.mp4
01-05.mp4,01-06.mp4,01-04.mp4,01-01.mp4,01-03.mp4,01-02.mp4
01-06.mp4,01-01.mp4,01-05.mp4,01-02.mp4,01-04.mp4,01-03.mp4
01-01.mp4,01-02.mp4,01-06.mp4,01-03.mp4,01-05.mp4,01-04.mp4
01-02.mp4,01-03.mp4,01-01.mp4,01-04.mp4,01-06.mp4,01-05.mp4
01-03.mp4,01-04.mp4,01-02.mp4,01-05.mp4,01-01.mp4,01-06.mp4
01-04.mp4,01-05.mp4,01-03.mp4,01-06.mp4,01-02.mp4,01-01.mp4
01-05.mp4,01-06.mp4,01-04.mp4,01-01.mp4,01-03.mp4,01-02.mp4
01-06.mp4,01-01.mp4,01-05.mp4,01-02.mp4,01-04.mp4,01-03.mp4
01-01.mp4,01-02.mp4,01-06.mp4,01-03.mp4,01-05.mp4,01-04.mp4
01-02.mp4,01-03.mp4,01-01.mp4,01-04.mp4,01-06.mp4,01-05.mp4
01-03.mp4,01-04.mp4,01-02.mp4,01-05.mp4,01-01.mp4,01-06.mp4
01-04.mp4,01-05.mp4,01-03.mp4,01-06.mp4,01-02.mp4,01-01.mp4
01-05.mp4,01-06.mp4,01-04.mp4,01-01.mp4,01-03.mp4,01-02.mp4
01-06.mp4,01-01.mp4,01-05.mp4,01-02.mp4,01-04.mp4,01-03.mp4
01-01.mp4,01-02.mp4,01-06.mp4,01-03.mp4,01-05.mp4,01-04.mp4
01-02.mp4,01-03.mp4,01-01.mp4,01-04.mp4,01-06.mp4,01-05.mp4
01-03.mp4,01-04.mp4,01-02.mp4,01-05.mp4,01-01.mp4,01-06.mp4
01-04.mp4,01-05.mp4,01-03.mp4,01-06.mp4,01-02.mp4,01-01.mp4
01-05.mp4,01-06.mp4,01-04.mp4,01-01.mp4,01-03.mp4,01-02.mp4
01-06.mp4,01-01.mp4,01-05.mp4,01-02.mp4,01-04.mp4,01-03.mp4
01-01.mp4,01-02.mp4,01-06.mp4,01-03.mp4,01-05.mp4,01-04.mp4
01-02.mp4,01-03.mp4,01-01.mp4,01-04.mp4,01-06.mp4,01-05.mp4
01-03.mp4,01-04.mp4,01-02.mp4,01-05.mp4,01-01.mp4,01-06.mp4
01-04.mp4,01-05.mp4,01-03.mp4,01-06.mp4,01-02.mp4,01-01.mp4
01-05.mp4,01-06.mp4,01-04.mp4,01-01.mp4,01-03.mp4,01-02.mp4
01-06.mp4,01-01.mp4,01-05.mp4,01-02.mp4,01-04.mp4,01-03.mp4
01-01.mp4,01-02.mp4,01-06.mp4,01-03.mp4,01-05.mp4,01-04.mp4
01-02.mp4,01-03.mp4,01-01.mp4,01-04.mp4,01-06.mp4,01-05.mp4
01-03.mp4,01-04.mp4,01-02.mp4,01-05.mp4,01-01.mp4,01-06.mp4
01-04.mp4,01-05.mp4,01-03.mp4,01-06.mp4,01-02.mp4,01-01.mp4
01-05.mp4,01-06.mp4,01-04.mp4,01-01.mp4,01-03.mp4,01-02.mp4
01-06.mp4,01-01.mp4,01-05.mp4,01-02.mp4,01-04.mp4,01-03.mp4
01-01.mp4,01-02.mp4,01-06.mp4,01-03.mp4,01-05.mp4,01-04.mp4
01-02.mp4,01-03.mp4,01-01.mp4,01-04.mp4,01-06.mp4,01-05.mp4
01-03.mp4,01-04.mp4,01-02.mp4,01-05.mp4,01-01.mp4,01-06.mp4
01-04.mp4,01-05.mp4,01-03.mp4,01-06.mp4,01-02.mp4,01-01.mp4
01-05.mp4,01-06.mp4,01-04.mp4,01-01.mp4,01-03.mp4,01-02.mp4
01-06.mp4,01-01.mp4,01-05.mp4,01-02.mp4,01-04.mp4,01-03.mp4
01-01.mp4,01-02.mp4,01-06.mp4,01-03.mp4,01-05.mp4,01-04.mp4
01-02.mp4,01-03.mp4,01-01.mp4,01-04.mp4,01-06.mp4,01-05.mp4
01-03.mp4,01-04.mp4,01-02.mp4,01-05.mp4,01-01.mp4,01-06.mp4
01-04.mp4,01-05.mp4,01-03.mp4,01-06.mp4,01-02.mp4,01-01.mp4
01-05.mp4,01-06.mp4,01-04.mp4,01-01.mp4,01-03.mp4,01-02.mp4
01-06.mp4,01-01.mp4,01-05.mp4,01-02.mp4,01-04.mp4,01-03.mp4
01-01.mp4,01-02.mp4,01-06.mp4,01-03.mp4,01-05.mp4,01-04.mp4
01-02.mp4,01-03.mp4,01-01.mp4,01-04.mp4,01-06.mp4,01-05.mp4
01-03.mp4,01-04.mp4,01-02.mp4,01-05.mp4,01-01.mp4,01-06.mp4
01-04.mp4,01-05.mp4,01-03.mp4,01-06.mp4,01-02.mp4,01-01.mp4
01-05.mp4,01-06.mp4,01-04.mp4,01-01.mp4,01-03.mp4,01-02.mp4
01-06.mp4,01-01.mp4,01-05.mp4,01-02.mp4,01-04.mp4,01-03.mp4
01-01.mp4,01-02.mp4,01-06.mp4,01-03.mp4,01-05.mp4,01-04.mp4
01-02.mp4,01-03.mp4,01-01.mp4,01-04.mp4,01-06.mp4,01-05.mp4
01-03.mp4,01-04.mp4,01-02.mp4,01-05.mp4,01-01.mp4,01-06.mp4
01-04.mp4,01-05.mp4,01-03.mp4,01-06.mp4,01-02.mp4,01-01.mp4
01-05.mp4,01-06.mp4,01-04.mp4,01-01.mp4,01-03.mp4,01-02.mp4
01-06.mp4,01-01.mp4,01-05.mp4,01-02.mp4,01-04.mp4,01-03.mp4
01-01.mp4,01-02.mp4,01-06.mp4,01-03.mp4,01-05.mp4,01-04.mp4
01-02.mp4,01-03.mp4,01-01.mp4,01-04.mp4,01-06.mp4,01-05.mp4
01-03.mp4,01-04.mp4,01-02.mp4,01-05.mp4,01-01.mp4,01-06.mp4
01-04.mp4,01-05.mp4,01-03.mp4,01-06.mp4,01-02.mp4,01-01.mp4
01-05.mp4,01-06.mp4,01-04.mp4,01-01.mp4,01-03.mp4,01-02.mp4
01-06.mp4,01-01.mp4,01-05.mp4,01-02.mp4,01-04.mp4,01-03.mp4
01-01.mp4,01-02.mp4,01-06.mp4,01-03.mp4,01-05.mp4,01-04.mp4
01-02.mp4,01-03.mp4,01-01.mp4,01-04.mp4,01-06.mp4,01-05.mp4
01-03.mp4,01-04.mp4,01-02.mp4,01-05.mp4,01-01.mp4,01-06.mp4
01-04.mp4,01-05.mp4,01-03.mp4,01-06.mp4,01-02.mp4,01-01.mp4
01-05.mp4,01-06.mp4,01-04.mp4,01-01.mp4,01-03.mp4,01-02.mp4
01-06.mp4,01-01.mp4,01-05.mp4,01-02.mp4,01-04.mp4,01-03.mp4
01-01.mp4,01-02.mp4,01-06.mp4,01-03.mp4,01-05.mp4,01-04.mp4
01-02.mp4,01-03.mp4,01-01.mp4,01-04.mp4,01-06.mp4,01-05.mp4
01-03.mp4,01-04.mp4,01-02.mp4,01-05.mp4,01-01.mp4,01-06.mp4
01-04.mp4,01-05.mp4,01-03.mp4,01-06.mp4,01-02.mp4,01-01.mp4
01-05.mp4,01-06.mp4,01-04.mp4,01-01.mp4,01-03.mp4,01-02.mp4
01-06.mp4,01-01.mp4,01-05.mp4,01-02.mp4,01-04.mp4,01-03.mp4
01-01.mp4,01-02.mp4,01-06.mp4,01-03.mp4,01-05.mp4,01-04.mp4
01-02.mp4,01-03.mp4,01-01.mp4,01-04.mp4,01-06.mp4,01-05.mp4
01-03.mp4,01-04.mp4,01-02.mp4,01-05.mp4,01-01.mp4,01-06.mp4
01-04.mp4,01-05.mp4,01-03.mp4,01-06.mp4,01-02.mp4,01-01.mp4
01-05.mp4,01-06.mp4,01-04.mp4,01-01.mp4,01-03.mp4,01-02.mp4
01-06.mp4,01-01.mp4,01-05.mp4,01-02.mp4,01-04.mp4,01-03.mp4
01-01.mp4,01-02.mp4,01-06.mp4,01-03.mp4,01-05.mp4,01-04.mp4
01-02.mp4,01-03.mp4,01-01.mp4,01-04.mp4,01-06.mp4,01-05.mp4
01-03.mp4,01-04.mp4,01-02.mp4,01-05.mp4,01-01.mp4,01-06.mp4
01-04.mp4,01-05.mp4,01-03.mp4,01-06.mp4,01-02.mp4,01-01.mp4
01-05.mp4,01-06.mp4,01-04.mp4,01-01.mp4,01-03.mp4,01-02.mp4
01-06.mp4,01-01.mp4,01-05.mp4,01-02.mp4,01-04.mp4,01-03.mp4
01-01.mp4,01-02.mp4,01-06.mp4,01-03.mp4,01-05.mp4,01-04.mp4
01-02.mp4,01-03.mp4,01-01.mp4,01-04.mp4,01-06.mp4,01-05.mp4
01-03.mp4,01-04.mp4,01-02.mp4,01-05.mp4,01-01.mp4,01-06.mp4
01-04.mp4,01-05.mp4,01-03.mp4,01-06.mp4,01-02.mp4,01-01.mp4
01-05.mp4,01-06.mp4,01-04.mp4,01-01.mp4,01-03.mp4,01-02.mp4
01-06.mp4,01-01.mp4,01-05.mp4,01-02.mp4,01-04.mp4,01-03.mp4
01-01.mp4,01-02.mp4,01-06.mp4,01-03.mp4,01-05.mp4,01-04.mp4
01-02.mp4,01-03.mp4,01-01.mp4,01-04.mp4,01-06.mp4,01-05.mp4
01-03.mp4,01-04.mp4,01-02.mp4,01-05.mp4,01-01.mp4,01-06.mp4
01-04.mp4,01-05.mp4,01-03.mp4,01-06.mp4,01-02.mp4,01-01.mp4
01-05.mp4,01-06.mp4,01-04.mp4,01-01.mp4,01-03.mp4,01-02.mp4
01-06.mp4,01-01.mp4,01-05.mp4,01-02.mp4,01-04.mp4,01-03.mp4
01-01.mp4,01-02.mp4,01-06.mp4,01-03.mp4,01-05.mp4,01-04.mp4
01-02.mp4,01-03.mp4,01-01.mp4,01-04.mp4,01-06.mp4,01-05.mp4
01-03.mp4,01-04.mp4,01-02.mp4,01-05.mp4,01-01.mp4,01-06.mp4
01-04.mp4,01-05.mp4,01-03.mp4,01-06.mp4,01-02.mp4,01-01.mp4
01-05.mp4,01-06.mp4,01-04.mp4,01-01.mp4,01-03.mp4,01-02.mp4
01-06.mp4,01-01.mp4,01-05.mp4,01-02.mp4,01-04.mp4,01-03.mp4
01-01.mp4,01-02.mp4,01-06.mp4,01-03.mp4,01-05.mp4,01-04.mp4
01-02.mp4,01-03.mp4,01-01.mp4,01-04.mp4,01-06.mp4,01-05.mp4
01-03.mp4,01-04.mp4,01-02.mp4,01-05.mp4,01-01.mp4,01-06.mp4
01-04.mp4,01-05.mp4,01-03.mp4,01-06.mp4,01-02.mp4,01-01.mp4
01-05.mp4,01-06.mp4,01-04.mp4,01-01.mp4,01-03.mp4,01-02.mp4
01-06.mp4,01-01.mp4,01-05.mp4,01-02.mp4,01-04.mp4,01-03.mp4
01-01.mp4,01-02.mp4,01-06.mp4,01-03.mp4,01-05.mp4,01-04.mp4
01-02.mp4,01-03.mp4,01-01.mp4,01-04.mp4,01-06.mp4,01-05.mp4
01-03.mp4,01-04.mp4,01-02.mp4,01-05.mp4,01-01.mp4,01-06.mp4
01-04.mp4,01-05.mp4,01-03.mp4,01-06.mp4,01-02.mp4,01-01.mp4
01-05.mp4,01-06.mp4,01-04.mp4,01-01.mp4,01-03.mp4,01-02.mp4
01-06.mp4,01-01.mp4,01-05.mp4,01-02.mp4,01-04.mp4,01-03.mp4
01-01.mp4,01-02.mp4,01-06.mp4,01-03.mp4,01-05.mp4,01-04.mp4
01-02.mp4,01-03.mp4,01-01.mp4,01-04.mp4,01-06.mp4,01-05.mp4
01-03.mp4,01-04.mp4,01-02.mp4,01-05.mp4,01-01.mp4,01-06.mp4
01-04.mp4,01-05.mp4,01-03.mp4,01-06.mp4,01-02.mp4,01-01.mp4
01-05.mp4,01-06.mp4,01-04.mp4,01-01.mp4,01-03.mp4,01-02.mp4
01-06.mp4,01-01.mp4,01-05.mp4,01-02.mp4,01-04.mp4,01-03.mp4
01-01.mp4,01-02.mp4,01-06.mp4,01-03.mp4,01-05.mp4,01-04.mp4
01-02.mp4,01-03.mp4,01-01.mp4,01-04.mp4,01-06.mp4,01-05.mp4
01-03.mp4,01-04.mp4,01-02.mp4,01-05.mp4,01-01.mp4,01-06.mp4
01-04.mp4,01-05.mp4,01-03.mp4,01-06.mp4,01-02.mp4,01-01.mp4
01-05.mp4,01-06.mp4,01-04.mp4,01-01.mp4,01-03.mp4,01-02.mp4
01-06.mp4,01-01.mp4,01-05.mp4,01-02.mp4,01-04.mp4,01-03.mp4
01-01.mp4,01-02.mp4,01-06.mp4,01-03.mp4,01-05.mp4,01-04.mp4
01-02.mp4,01-03.mp4,01-01.mp4,01-04.mp4,01-06.mp4,01-05.mp4
01-03.mp4,01-04.mp4,01-02.mp4,01-05.mp4,01-01.mp4,01-06.mp4
01-04.mp4,01-05.mp4,01-03.mp4,01-06.mp4,01-02.mp4,01-01.mp4
01-05.mp4,01-06.mp4,01-04.mp4,01-01.mp4,01-03.mp4,01-02.mp4
01-06.mp4,01-01.mp4,01-05.mp4,01-02.mp4,01-04.mp4,01-03.mp4
01-01.mp4,01-02.mp4,01-06.mp4,01-03.mp4,01-05.mp4,01-04.mp4
01-02.mp4,01-03.mp4,01-01.mp4,01-04.mp4,01-06.mp4,01-05.mp4
01-03.mp4,01-04.mp4,01-02.mp4,01-05.mp4,01-01.mp4,01-06.mp4
01-04.mp4,01-05.mp4,01-03.mp4,01-06.mp4,01-02.mp4,01-01.mp4
01-05.mp4,01-06.mp4,01-04.mp4,01-01.mp4,01-03.mp4,01-02.mp4
01-06.mp4,01-01.mp4,01-05.mp4,01-02.mp4,01-04.mp4,01-03.mp4
01-01.mp4,01-02.mp4,01-06.mp4,01-03.mp4,01-05.mp4,01-04.mp4
01-02.mp4,01-03.mp4,01-01.mp4,01-04.mp4,01-06.mp4,01-05.mp4
01-03.mp4,01-04.mp4,01-02.mp4,01-05.mp4,01-01.mp4,01-06.mp4
01-04.mp4,01-05.mp4,01-03.mp4,01-06.mp4,01-02.mp4,01-01.mp4
01-05.mp4,01-06.mp4,01-04.mp4,01-01.mp4,01-03.mp4,01-02.mp4
01-06.mp4,01-01.mp4,01-05.mp4,01-02.mp4,01-04.mp4,01-03.mp4
01-01.mp4,01-02.mp4,01-06.mp4,01-03.mp4,01-05.mp4,01-04.mp4
01-02.mp4,01-03.mp4,01-01.mp4,01-04.mp4,01-06.mp4,01-05.mp4
01-03.mp4,01-04.mp4,01-02.mp4,01-05.mp4,01-01.mp4,01-06.mp4
01-04.mp4,01-05.mp4,01-03.mp4,01-06.mp4,01-02.mp4,01-01.mp4
01-05.mp4,01-06.mp4,01-04.mp4,01-01.mp4,01-03.mp4,01-02.mp4
01-06.mp4,01-01.mp4,01-05.mp4,01-02.mp4,01-04.mp4,01-03.mp4
01-01.mp4,01-02.mp4,01-06.mp4,01-03.mp4,01-05.mp4,01-04.mp4
01-02.mp4,01-03.mp4,01-01.mp4,01-04.mp4,01-06.mp4,01-05.mp4
01-03.mp4,01-04.mp4,01-02.mp4,01-05.mp4,01-01.mp4,01-06.mp4
01-04.mp4,01-05.mp4,01-03.mp4,01-06.mp4,01-02.mp4,01-01.mp4
01-05.mp4,01-06.mp4,01-04.mp4,01-01.mp4,01-03.mp4,01-02.mp4
01-06.mp4,01-01.mp4,01-05.mp4,01-02.mp4,01-04.mp4,01-03.mp4
01-01.mp4,01-02.mp4,01-06.mp4,01-03.mp4,01-05.mp4,01-04.mp4
01-02.mp4,01-03.mp4,01-01.mp4,01-04.mp4,01-06.mp4,01-05.mp4
01-03.mp4,01-04.mp4,01-02.mp4,01-05.mp4,01-01.mp4,01-06.mp4
01-04.mp4,01-05.mp4,01-03.mp4,01-06.mp4,01-02.mp4,01-01.mp4
01-05.mp4,01-06.mp4,01-04.mp4,01-01.mp4,01-03.mp4,01-02.mp4
01-06.mp4,01-01.mp4,01-05.mp4,01-02.mp4,01-04.mp4,01-03.mp4
01-01.mp4,01-02.mp4,01-06.mp4,01-03.mp4,01-05.mp4,01-04.mp4
01-02.mp4,01-03.mp4,01-01.mp4,01-04.mp4,01-06.mp4,01-05.mp4
01-03.mp4,01-04.mp4,01-02.mp4,01-05.mp4,01-01.mp4,01-06.mp4
01-04.mp4,01-05.mp4,01-03.mp4,01-06.mp4,01-02.mp4,01-01.mp4
01-05.mp4,01-06.mp4,01-04.mp4,01-01.mp4,01-03.mp4,01-02.mp4
01-06.mp4,01-01.mp4,01-05.mp4,01-02.mp4,01-04.mp4,01-03.mp4
01-01.mp4,01-02.mp4,01-06.mp4,01-03.mp4,01-05.mp4,01-04.mp4
01-02.mp4,01-03.mp4,01-01.mp4,01-04.mp4,01-06.mp4,01-05.mp4
01-03.mp4,01-04.mp4,01-02.mp4,01-05.mp4,01-01.mp4,01-06.mp4
01-04.mp4,01-05.mp4,01-03.mp4,01-06.mp4,01-02.mp4,01-01.mp4
01-05.mp4,01-06.mp4,01-04.mp4,01-01.mp4,01-03.mp4,01-02.mp4
01-06.mp4,01-01.mp4,01-05.mp4,01-02.mp4,01-04.mp4,01-03.mp4
01-01.mp4,01-02.mp4,01-06.mp4,01-03.mp4,01-05.mp4,01-04.mp4
01-02.mp4,01-03.mp4,01-01.mp4,01-04.mp4,01-06.mp4,01-05.mp4
01-03.mp4,01-04.mp4,01-02.mp4,01-05.mp4,01-01.mp4,01-06.mp4
01-04.mp4,01-05.mp4,01-03.mp4,01-06.mp4,01-02.mp4,01-01.mp4
01-05.mp4,01-06.mp4,01-04.mp4,01-01.mp4,01-03.mp4,01-02.mp4
01-06.mp4,01-01.mp4,01-05.mp4,01-02.mp4,01-04.mp4,01-03.mp4
01-01.mp4,01-02.mp4,01-06.mp4,01-03.mp4,01-05.mp4,01-04.mp4
01-02.mp4,01-03.mp4,01-01.mp4,01-04.mp4,01-06.mp4,01-05.mp4
01-03.mp4,01-04.mp4,01-02.mp4,01-05.mp4,01-01.mp4,01-06.mp4
01-04.mp4,01-05.mp4,01-03.mp4,01-06.mp4,01-02.mp4,01-01.mp4
01-05.mp4,01-06.mp4,01-04.mp4,01-01.mp4,01-03.mp4,01-02.mp4
01-06.mp4,01-01.mp4,01-05.mp4,01-02.mp4,01-04.mp4,01-03.mp4
01-01.mp4,01-02.mp4,01-06.mp4,01-03.mp4,01-05.mp4,01-04.mp4
01-02.mp4,01-03.mp4,01-01.mp4,01-04.mp4,01-06.mp4,01-05.mp4
01-03.mp4,01-04.mp4,01-02.mp4,01-05.mp4,01-01.mp4,01-06.mp4
01-04.mp4,01-05.mp4,01-03.mp4,01-06.mp4,01-02.mp4,01-01.mp4
01-05.mp4,01-06.mp4,01-04.mp4,01-01.mp4,01-03.mp4,01-02.mp4
01-06.mp4,01-01.mp4,01-05.mp4,01-02.mp4,01-04.mp4,01-03.mp4
01-01.mp4,01-02.mp4,01-06.mp4,01-03.mp4,01-05.mp4,01-04.mp4
01-02.mp4,01-03.mp4,01-01.mp4,01-04.mp4,01-06.mp4,01-05.mp4
01-03.mp4,01-04.mp4,01-02.mp4,01-05.mp4,01-01.mp4,01-06.mp4
01-04.mp4,01-05.mp4,01-03.mp4,01-06.mp4,01-02.mp4,01-01.mp4
01-05.mp4,01-06.mp4,01-04.mp4,01-01.mp4,01-03.mp4,01-02.mp4
01-06.mp4,01-01.mp4,01-05.mp4,01-02.mp4,01-04.mp4,01-03.mp4
01-01.mp4,01-02.mp4,01-06.mp4,01-03.mp4,01-05.mp4,01-04.mp4
01-02.mp4,01-03.mp4,01-01.mp4,01-04.mp4,01-06.mp4,01-05.mp4
01-03.mp4,01-04.mp4,01-02.mp4,01-05.mp4,01-01.mp4,01-06.mp4
01-04.mp4,01-05.mp4,01-03.mp4,01-06.mp4,01-02.mp4,01-01.mp4
01-05.mp4,01-06.mp4,01-04.mp4,01-01.mp4,01-03.mp4,01-02.mp4
01-06.mp4,01-01.mp4,01-05.mp4,01-02.mp4,01-04.mp4,01-03.mp4
01-01.mp4,01-02.mp4,01-06.mp4,01-03.mp4,01-05.mp4,01-04.mp4
01-02.mp4,01-03.mp4,01-01.mp4,01-04.mp4,01-06.mp4,01-05.mp4
01-03.mp4,01-04.mp4,01-02.mp4,01-05.mp4,01-01.mp4,01-06.mp4
01-04.mp4,01-05.mp4,01-03.mp4,01-06.mp4,01-02.mp4,01-01.mp4
01-05.mp4,01-06.mp4,01-04.mp4,01-01.mp4,01-03.mp4,01-02.mp4
01-06.mp4,01-01.mp4,01-05.mp4,01-02.mp4,01-04.mp4,01-03.mp4
01-01.mp4,01-02.mp4,01-06.mp4,01-03.mp4,01-05.mp4,01-04.mp4
01-02.mp4,01-03.mp4,01-01.mp4,01-04.mp4,01-06.mp4,01-05.mp4
01-03.mp4,01-04.mp4,01-02.mp4,01-05.mp4,01-01.mp4,01-06.mp4
01-04.mp4,01-05.mp4,01-03.mp4,01-06.mp4,01-02.mp4,01-01.mp4
01-05.mp4,01-06.mp4,01-04.mp4,01-01.mp4,01-03.mp4,01-02.mp4
01-06.mp4,01-01.mp4,01-05.mp4,01-02.mp4,01-04.mp4,01-03.mp4
01-01.mp4,01-02.mp4,01-06.mp4,01-03.mp4,01-05.mp4,01-04.mp4
01-02.mp4,01-03.mp4,01-01.mp4,01-04.mp4,01-06.mp4,01-05.mp4
01-03.mp4,01-04.mp4,01-02.mp4,01-05.mp4,01-01.mp4,01-06.mp4
01-04.mp4,01-05.mp4,01-03.mp4,01-06.mp4,01-02.mp4,01-01.mp4
01-05.mp4,01-06.mp4,01-04.mp4,01-01.mp4,01-03.mp4,01-02.mp4
01-06.mp4,01-01.mp4,01-05.mp4,01-02.mp4,01-04.mp4,01-03.mp4
01-01.mp4,01-02.mp4,01-06.mp4,01-03.mp4,01-05.mp4,01-04.mp4
01-02.mp4,01-03.mp4,01-01.mp4,01-04.mp4,01-06.mp4,01-05.mp4
01-03.mp4,01-04.mp4,01-02.mp4,01-05.mp4,01-01.mp4,01-06.mp4
01-04.mp4,01-05.mp4,01-03.mp4,01-06.mp4,01-02.mp4,01-01.mp4
01-05.mp4,01-06.mp4,01-04.mp4,01-01.mp4,01-03.mp4,01-02.mp4
01-06.mp4,01-01.mp4,01-05.mp4,01-02.mp4,01-04.mp4,01-03.mp4
01-01.mp4,01-02.mp4,01-06.mp4,01-03.mp4,01-05.mp4,01-04.mp4
01-02.mp4,01-03.mp4,01-01.mp4,01-04.mp4,01-06.mp4,01-05.mp4
01-03.mp4,01-04.mp4,01-02.mp4,01-05.mp4,01-01.mp4,01-06.mp4
01-04.mp4,01-05.mp4,01-03.mp4,01-06.mp4,01-02.mp4,01-01.mp4
01-05.mp4,01-06.mp4,01-04.mp4,01-01.mp4,01-03.mp4,01-02.mp4
01-06.mp4,01-01.mp4,01-05.mp4,01-02.mp4,01-04.mp4,01-03.mp4
01-01.mp4,01-02.mp4,01-06.mp4,01-03.mp4,01-05.mp4,01-04.mp4
01-02.mp4,01-03.mp4,01-01.mp4,01-04.mp4,01-06.mp4,01-05.mp4
01-03.mp4,01-04.mp4,01-02.mp4,01-05.mp4,01-01.mp4,01-06.mp4
01-04.mp4,01-05.mp4,01-03.mp4,01-06.mp4,01-02.mp4,01-01.mp4
01-05.mp4,01-06.mp4,01-04.mp4,01-01.mp4,01-03.mp4,01-02.mp4
01-06.mp4,01-01.mp4,01-05.mp4,01-02.mp4,01-04.mp4,01-03.mp4
01-01.mp4,01-02.mp4,01-06.mp4,01-03.mp4,01-05.mp4,01-04.mp4
01-02.mp4,01-03.mp4,01-01.mp4,01-04.mp4,01-06.mp4,01-05.mp4
01-03.mp4,01-04.mp4,01-02.mp4,01-05.mp4,01-01.mp4,01-06.mp4
01-04.mp4,01-05.mp4,01-03.mp4,01-06.mp4,01-02.mp4,01-01.mp4
01-05.mp4,01-06.mp4,01-04.mp4,01-01.mp4,01-03.mp4,01-02.mp4
01-06.mp4,01-01.mp4,01-05.mp4,01-02.mp4,01-04.mp4,01-03.mp4
01-01.mp4,01-02.mp4,01-06.mp4,01-03.mp4,01-05.mp4,01-04.mp4
01-02.mp4,01-03.mp4,01-01.mp4,01-04.mp4,01-06.mp4,01-05.mp4
01-03.mp4,01-04.mp4,01-02.mp4,01-05.mp4,01-01.mp4,01-06.mp4
01-04.mp4,01-05.mp4,01-03.mp4,01-06.mp4,01-02.mp4,01-01.mp4
01-05.mp4,01-06.mp4,01-04.mp4,01-01.mp4,01-03.mp4,01-02.mp4
01-06.mp4,01-01.mp4,01-05.mp4,01-02.mp4,01-04.mp4,01-03.mp4
